…
One thing to note is that I did go back to the code I made last time and rather than discarding articles that didn’t fall into either the GOF or LOF category I just gave them the label "Other". As I had no idea where to even start with this, a lot of the inspiration for this post came from Julia Silge’s brilliant post ‘The Game Is Afoot! Topic Modeling Of Sherlock Holmes Stories’.

First thing is first, we need to load in our data.

library(tidyverse)
data <- read_delim("./data/02_data_preprocessing/processed_data.csv", delim = "\t")

The problem now is that we want to analyse each individual word, not the abstracts as one long string. This might sound like a stringr nightmare, but luckily the tidytext package has got us covered

library(tidytext)
words <- data %>%
  unnest_tokens(word, abstract) %>%
  select(pubmed_id, word)

## # A tibble: 6,860,738 × 2
##    pubmed_id word    
##        <dbl> <chr>   
##  1    262166 isolated
##  2    262166 and     
##  3    262166 highly  
##  4    262166 purified
##  5    262166 myeloma 
##  6    262166 igd     
##  7    262166 dek     
##  8    262166 sta     
##  9    262166 and     
## 10    262166 sar     
## # … with 6,860,728 more rows
…
