…
The Boston Housing Data

For this example I will be using the Boston Housing dataset. This is available to download online or comes as a part of the mlbench library, which is how I will be accessing it.

# Load the mlbench library containing the data set
library(mlbench)

# Load the Boston Housing Dataset
data("BostonHousing")

# Turn all entries into a number
data <- apply(BostonHousing, 2, as.numeric)
data <- as.data.frame(data)

## # A tibble: 506 × 14
##       crim    zn indus  chas   nox    rm   age   dis   rad   tax ptratio     b
##      <dbl> <dbl> <dbl> <dbl> <dbl> <dbl> <dbl> <dbl> <dbl> <dbl>   <dbl> <dbl>
##  1 0.00632  18    2.31     0 0.538  6.58  65.2  4.09     1   296    15.3  397.
##  2 0.0273    0    7.07     0 0.469  6.42  78.9  4.97     2   242    17.8  397.
##  3 0.0273    0    7.07     0 0.469  7.18  61.1  4.97     2   242    17.8  393.
##  4 0.0324    0    2.18     0 0.458  7.00  45.8  6.06     3   222    18.7  395.
##  5 0.0690    0    2.18     0 0.458  7.15  54.2  6.06     3   222    18.7  397.
##  6 0.0298    0    2.18     0 0.458  6.43  58.7  6.06     3   222    18.7  394.
##  7 0.0883   12.5  7.87     0 0.524  6.01  66.6  5.56     5   311    15.2  396.
##  8 0.145    12.5  7.87     0 0.524  6.17  96.1  5.95     5   311    15.2  397.
##  9 0.211    12.5  7.87     0 0.524  5.63 100    6.08     5   311    15.2  387.
## 10 0.170    12.5  7.87     0 0.524  6.00  85.9  6.59     5   311    15.2  387.
## # … with 496 more rows, and 2 more variables: lstat <dbl>, medv <dbl>
…
##   (Intercept)          crim            zn         indus          chas 
##  3.645949e+01 -1.080114e-01  4.642046e-02  2.055863e-02  2.686734e+00 
##           nox            rm           age           dis           rad 
## -1.776661e+01  3.809865e+00  6.922246e-04 -1.475567e+00  3.060495e-01 
##           tax       ptratio             b         lstat 
## -1.233459e-02 -9.527472e-01  9.311683e-03 -5.247584e-01

Here we can see rm has a coefficient of about 3.8 which is the largest in size (ignoring the intercept), does this mean that it is the most important predictor in the data set? The obvious answer here is: we can’t say. This is because all of our variables are using different units and this will have a big effect on the coefficients. So before we train a linear model we should be centering and scaling our data

# Centering and scaling the data
data <- scale(data, center = TRUE, scale = TRUE)
data <- as.data.frame(data)

## # A tibble: 506 × 14
##      crim      zn  indus   chas    nox     rm     age   dis    rad    tax
##     <dbl>   <dbl>  <dbl>  <dbl>  <dbl>  <dbl>   <dbl> <dbl>  <dbl>  <dbl>
##  1 -0.419  0.285  -1.29  -0.272 -0.144  0.413 -0.120  0.140 -0.982 -0.666
##  2 -0.417 -0.487  -0.593 -0.272 -0.740  0.194  0.367  0.557 -0.867 -0.986
##  3 -0.417 -0.487  -0.593 -0.272 -0.740  1.28  -0.266  0.557 -0.867 -0.986
##  4 -0.416 -0.487  -1.31  -0.272 -0.834  1.02  -0.809  1.08  -0.752 -1.11 
##  5 -0.412 -0.487  -1.31  -0.272 -0.834  1.23  -0.511  1.08  -0.752 -1.11 
##  6 -0.417 -0.487  -1.31  -0.272 -0.834  0.207 -0.351  1.08  -0.752 -1.11 
##  7 -0.410  0.0487 -0.476 -0.272 -0.265 -0.388 -0.0702 0.838 -0.522 -0.577
##  8 -0.403  0.0487 -0.476 -0.272 -0.265 -0.160  0.978  1.02  -0.522 -0.577
##  9 -0.396  0.0487 -0.476 -0.272 -0.265 -0.930  1.12   1.09  -0.522 -0.577
## 10 -0.400  0.0487 -0.476 -0.272 -0.265 -0.399  0.615  1.33  -0.522 -0.577
## # … with 496 more rows, and 4 more variables: ptratio <dbl>, b <dbl>,
## #   lstat <dbl>, medv <dbl>
…
