…
data.to_csv(
    "data/01_data_collection/raw_data.csv", 
    sep="\t",
    index=False
)

Now I have abstracts for multiple articles referring to specific genes I have labelled ground truth data for. As you can see, large parts of the data frame were commented out. This was because I did not put any logic in to account for missing data (please do put in a pull request to change this. This takes all of the data and exports it to a csv. The main reason for this is because I am much more comfortable in R (and to my shame still can’t work out how to use pandas, no matter how many tutorials I do). But I am a big believer in using the right tools for the job and hopefully throughout this project you will see me switching languages to whatever has the best package for the task.

The NLP specific data preprocessing will be covered in later posts, but there is still a bit of exploratory data analysis and processing to do first. You need to understand your data for machine learning and your exploratory data analysis should ideally be measured in hours, not minutes.

## # A tibble: 94 × 4
## # Groups:   gene_type [2]
##    pubmed_id gene   gene_type abstract                                          
##        <int> <chr>  <chr>     <chr>                                             
##  1  35650277 ABL1   GOF       "ABL-class fusions including NUP214-ABL1 and EBF1…
##  2  35653424 AFF4   GOF       "A primary goal of biomedical research is to eluc…
##  3  35560280 AKAP13 GOF       "To determine if A-kinase anchoring protein 13 (A…
##  4  35643235 AKT2   GOF       "Parenteral nutrition (PN) is a lifesaving therap…
##  5  35651364 ALK    GOF       ""                                                
##  6  35599749 AML1   GOF       "Acute myeloid leukemia (AML) is a heterogeneous …
##  7  35652662 APC    LOF       "Amoxicillin-clavulanic acid (AMC) is the most wi…
##  8  35650435 AXL    GOF       "Disseminated cancer cells from primary tumours c…
##  9  35654262 BCL-2  GOF       "Cerebral ischemia-reperfusion, subsequent hypert…
## 10  35641486 BCL-3  GOF       "Acute liver failure (ALF) is a rare entity but e…
## # … with 84 more rows

I found this part of the process to be extremely fascinating, I love it when I have data with multiple levels of ground truth labels. By this I mean that each abstract can be tagged with either the id of the article it appears in, the name of the gene used as a search term to return it or the type of that gene (i.e. GOF/LOF). One key thing we have to address before moving on is that the same article may be appear in the results multiple times, matching queries from multiple genes. Lets first check for this:

raw_data %>%
  group_by(pubmed_id) %>%
  summarise(count = n()) %>%
  arrange(-count)

## # A tibble: 37,722 × 2
##    pubmed_id count
##        <int> <int>
##  1  35563746    10
##  2  35615557    10
##  3  28597942     8
##  4  35181378     8
##  5  35302596     8
##  6  35614407     8
##  7  35644022     8
##  8  33684909     7
##  9  35127508     7
## 10  35180531     7
## # … with 37,712 more rows
…
